{
    "Version": "2012-10-17",
    "Statement": [
        {
            "Sid": "LimitSourceIps",
            "Effect": "Deny",
            "Principal": "*",
            "Action": "s3:*",
            "Resource": [
                "arn:aws:s3:::BUCKETNAME",
                "arn:aws:s3:::BUCKETNAME/*"
                ],
            "Condition": {
                "NotIpAddress": {
                    "aws:SourceIp": [
                        "xxx.xxx.xxx.xxx/8",
                        "yyy.yyy.yyy.yyy/12",
                        "zzz.zzz.zzz.zzz/16"
                    ]
                }
            }
        }
    ]
}
